%YAML 1.1
%TAG !u! tag:unity3d.com,2011:
--- !u!21 &2100000
Material:
  serializedVersion: 6
  m_ObjectHideFlags: 0
  m_PrefabParentObject: {fileID: 0}
  m_PrefabInternal: {fileID: 0}
  m_Name: Hologram Simple
  m_Shader: {fileID: 4800000, guid: e4f83df1330e04ebfb51570e30bf2c46, type: 3}
  m_ShaderKeywords: 
  m_LightmapFlags: 0
  m_EnableInstancingVariants: 0
  m_DoubleSidedGI: 0
  m_CustomRenderQueue: -1
  stringTagMap: {}
  disabledShaderPasses: []
  m_SavedProperties:
    serializedVersion: 3
    m_TexEnvs:
    - <noninit>:
        m_Texture: {fileID: 0}
        m_Scale: {x: 1, y: 1}
        m_Offset: {x: 0, y: 0}
    - _RimNormalMap:
        m_Texture: {fileID: 2800000, guid: f7f322ea849ea7d41adb6fa8a7d8a3e6, type: 3}
        m_Scale: {x: 1, y: 1}
        m_Offset: {x: 0, y: 0}
    - _texcoord:
        m_Texture: {fileID: 0}
        m_Scale: {x: 1, y: 1}
        m_Offset: {x: 0, y: 0}
    m_Floats:
    - <noninit>: 1
    - _Intensity: 1
    - _Opacity: 0.4
    - _RimPower: 4.13
    - _ScanLines: 6
    - _Speed: 64
    - __dirty: 0
    m_Colors:
    - <noninit>: {r: 1, g: 1, b: 1, a: 1}
    - _Hologramcolor: {r: 0, g: 0.24391466, b: 0.9558824, a: 0}
